,0,1
0,70589,850000
1,85820,830000
2,72382,870000
3,76779,80000
4,81764,60000
5,67916,810000
6,81756,84000
7,80249,490000
8,85348,158000
9,73897,640000
10,74010,350000
11,74160,550000
12,74304,260000
13,74606,290000
14,74933,250000
15,74944,210000
16,75399,450000
17,81037,590000
18,75410,302000
19,75413,650000
20,75552,650000
21,80856,200000
22,73383,235000
23,80598,110000
24,76908,350000
25,77016,260000
26,77229,250000
27,77271,385000
28,78158,230000
29,78202,450000
30,78424,210000
31,78561,580000
32,76485,620000
33,76533,590000
34,73381,320000
35,72987,725000
36,71275,370000
37,71283,750000
38,71284,765000
39,71693,320000
40,71716,310000
41,71896,800000
42,71899,675000
43,71902,395000
44,71995,650000
45,71999,160000
46,72074,510000
47,72114,430000
48,72307,445000
49,81128,130000
50,72309,375000
51,72342,175000
52,72389,720000
53,72390,420000
54,72402,420000
55,72409,325000
56,72479,255000
57,72494,250000
58,72503,220000
59,72512,545000
60,72546,320000
61,72847,324000
62,72914,230000
63,72927,625000
64,72311,335000
65,81177,245000
66,2743,250000
67,71274,375000
68,85391,398000
69,85489,217000
70,85491,286000
71,85595,192000
72,85622,493000
73,85771,233000
74,85790,138000
75,85929,268000
76,85967,219000
77,85968,398000
78,86049,354000
79,86151,434000
80,86180,387000
81,85350,216000
82,86290,220000
83,86580,379000
84,86658,475000
85,86802,356000
86,87138,287000
87,87139,442000
88,87184,531000
89,87190,381000
90,87308,173000
91,87309,263000
92,87333,388000
93,87339,442000
94,87384,244000
95,82259,340000
96,86493,470000
97,81237,210000
98,85317,333000
99,84712,206000
100,81632,152000
101,81641,232000
102,81665,490000
103,81670,450000
104,81782,275000
105,81992,382000
106,82001,445000
107,82167,250000
108,82210,305000
109,82240,140000
110,82262,170000
111,82726,409000
112,82728,207000
113,85242,316000
114,83006,326000
115,83497,148000
116,83508,104000
117,83512,128000
118,83555,272000
119,83777,168000
120,83952,141000
121,84107,309000
122,84138,158000
123,84270,286000
124,84370,183000
125,84512,444000
126,84614,241000
127,84628,208000
128,83211,299000
129,81267,238000
130,73482,150000
131,65685,365000
132,66213,490000
133,69013,710000
134,68980,295000
135,65457,235000
136,66379,440000
137,68181,220000
138,68137,295000
139,65381,365000
140,62730,550000
141,65380,330000
142,66383,315000
143,65268,345000
144,68135,440000
145,63744,375000
146,66421,575000
147,66664,750000
148,66669,575000
149,64653,390000
150,65124,725000
151,64654,560000
152,66671,350000
153,65707,435000
154,65102,585000
155,65101,550000
156,66897,325000
157,64865,249000
158,64873,729000
159,65055,740000
160,65054,340000
161,62091,330000
162,69061,625000
163,68303,260000
164,65052,315000
165,69069,310000
166,69686,615000
167,65871,650000
168,70100,230000
169,65870,585000
170,65798,255000
171,65661,220000
172,70582,370000
173,65881,545000
174,65460,775000
175,66212,290000
176,65737,695000
177,69204,250000
178,61709,220000
179,65458,325000
180,65462,675000
181,72733,300000
182,74243,400000
183,81961,300000
184,71509,300000
185,81804,600000
186,72030,300000
187,71206,500000
188,67730,400000
189,64655,300000
190,81544,300000
191,80388,300000
192,81035,400000
193,78132,300000
194,74649,400000
195,77934,400000
196,79544,500000
197,82335,600000
198,72537,300000
199,62059,400000
200,82260,925000
201,65053,185000
202,82350,800000
203,84197,566000
204,82360,250000
205,82551,414000
206,65646,2950000
207,84566,328000
208,82651,221000
209,65671,850000
210,82145,415000
211,83896,520000
212,83008,578000
213,82895,273000
214,82007,360000
215,83269,176000
216,82891,467000
217,65388,600000
218,65588,645000
219,65103,535000
220,82042,800000
221,65188,845000
222,65644,590000
223,83753,544000
224,65395,840000
225,81948,1750000
226,81911,650000
227,65245,339000
228,65303,260000
229,70868,920000
230,64945,550000
231,86505,619000
232,86513,2000000
233,86518,557000
234,86579,669000
235,62406,400000
236,86706,548000
237,86864,734000
238,87111,349000
239,61572,675000
240,87155,950000
241,61468,800000
242,61332,550000
243,87209,447000
244,87268,875000
245,86504,451000
246,61029,1300000
247,57261,400000
248,87334,468000
249,56024,400000
250,87342,2400000
251,54709,650000
252,87398,560000
253,87401,495000
254,87427,585000
255,87437,445000
256,87494,398000
257,87495,349000
258,87499,980000
259,87529,660000
260,54252,525000
261,60834,2100000
262,86501,2800000
263,62564,550000
264,86426,524000
265,84768,448000
266,85080,527000
267,64882,349000
268,85280,532000
269,64830,599000
270,64792,375000
271,64732,935000
272,85517,283000
273,85621,218000
274,85679,802000
275,85691,1800000
276,85789,448000
277,64424,850000
278,85846,498000
279,85914,760000
280,64080,790000
281,85940,1700000
282,86424,390000
283,86387,980000
284,86369,850000
285,86346,585000
286,86322,669000
287,62644,400000
288,64947,430000
289,86270,1600000
290,63105,400000
291,86149,458000
292,86076,5500000
293,63665,400000
294,85988,816000
295,63817,600000
296,86247,344000
297,64656,725000
298,80884,500000
299,81645,500000
300,68851,450000
301,72486,1550000
302,68500,600000
303,72496,650000
304,72507,565000
305,72510,545000
306,72511,1145000
307,72513,1175000
308,72520,425000
309,72521,500000
310,72588,250000
311,72635,470000
312,72686,2100000
313,72726,320000
314,72731,550000
315,72741,240000
316,68136,665000
317,72892,400000
318,72902,1120000
319,72924,835000
320,72926,675000
321,68128,270000
322,68051,695000
323,73055,620000
324,73201,675000
325,73258,730000
326,73284,1250000
327,72437,450000
328,72411,590000
329,72405,1375000
330,69016,550000
331,70913,600000
332,71097,160000
333,70578,1110000
334,70432,650000
335,70415,1600000
336,71440,700000
337,71687,615000
338,71688,635000
339,70284,800000
340,70215,611000
341,70206,575000
342,70124,800000
343,71962,800000
344,73345,530000
345,70098,450000
346,69647,325000
347,72099,850000
348,69595,425000
349,72182,399000
350,72214,595000
351,72230,608000
352,69593,435000
353,69591,675000
354,72332,900000
355,72351,550000
356,72385,320000
357,72387,815000
358,69032,600000
359,72072,800000
360,68050,525000
361,67849,630000
362,73461,640000
363,77150,472000
364,77183,800000
365,77186,1600000
366,66382,960000
367,66381,1625000
368,77428,950000
369,78065,500000
370,66283,695000
371,66269,1450000
372,78532,2650000
373,78546,1000000
374,66214,390000
375,78714,335000
376,77141,1100000
377,80267,675000
378,66209,800000
379,80869,600000
380,70863,1090000
381,80946,410000
382,80958,336000
383,81175,430000
384,81192,850000
385,65827,340000
386,81299,210000
387,81346,350000
388,81469,445000
389,81532,425000
390,65756,355000
391,80728,500000
392,81682,1100000
393,77051,1850000
394,76567,500000
395,67845,600000
396,73526,600000
397,73701,1000000
398,73819,451000
399,73851,450000
400,73860,900000
401,73875,1250000
402,73981,450000
403,67674,1200000
404,67529,1225000
405,74186,640000
406,67470,815000
407,74471,700000
408,66385,725000
409,74518,1615000
410,67469,385000
411,74846,915000
412,67468,795000
413,67266,450000
414,75166,650000
415,67077,1050000
416,66676,725000
417,75548,450000
418,75629,650000
419,75947,1800000
420,76424,350000
421,76514,352000
422,76565,600000
423,74527,680000
424,85563,738000
