,0,1
0,82335,600000
1,81804,600000
2,76485,620000
3,71899,675000
4,72927,625000
5,76533,590000
6,72512,545000
7,71995,650000
8,74160,550000
9,87184,531000
10,65101,550000
11,65462,675000
12,65881,545000
13,65871,650000
14,65870,585000
15,64654,560000
16,65102,585000
17,62730,550000
18,81037,590000
19,72074,510000
20,69686,615000
21,78561,580000
22,75552,650000
23,66421,575000
24,75413,650000
25,69061,625000
26,66669,575000
27,65737,695000
28,73897,640000
29,68500,600000
30,65388,600000
31,73526,600000
32,69032,600000
33,70913,600000
34,80869,600000
35,67845,600000
36,76565,600000
37,79544,500000
38,63817,600000
39,71206,500000
40,86322,669000
41,85280,532000
42,85080,527000
43,69016,550000
44,80249,490000
45,80267,675000
46,68136,665000
47,67849,630000
48,68050,525000
49,68051,695000
50,84512,444000
51,68135,440000
52,84197,566000
53,72731,550000
54,69013,710000
55,75399,450000
56,70432,650000
57,69591,675000
58,72389,720000
59,81665,490000
60,72351,550000
61,81670,450000
62,72307,445000
63,72230,608000
64,72214,595000
65,72114,430000
66,81911,650000
67,72411,590000
68,82001,445000
69,71896,800000
70,72496,650000
71,71688,635000
72,71687,615000
73,71284,765000
74,71283,750000
75,72507,565000
76,72510,545000
77,82726,409000
78,83008,578000
79,70215,611000
80,70206,575000
81,75166,650000
82,83753,544000
83,83896,520000
84,72390,420000
85,78202,450000
86,66664,750000
87,86493,470000
88,86505,619000
89,65124,725000
90,72926,675000
91,65055,740000
92,86518,557000
93,86579,669000
94,86658,475000
95,64945,550000
96,86706,548000
97,64873,729000
98,64830,599000
99,87139,442000
100,74186,640000
101,74527,680000
102,87339,442000
103,62564,550000
104,75629,650000
105,87398,560000
106,61572,675000
107,87427,585000
108,61332,550000
109,87529,660000
110,54709,650000
111,54252,525000
112,86426,524000
113,86346,585000
114,65103,535000
115,73345,530000
116,72987,725000
117,73055,620000
118,73201,675000
119,85622,493000
120,66379,440000
121,66283,695000
122,66213,490000
123,86151,434000
124,73461,640000
125,65707,435000
126,72402,420000
127,65588,645000
128,65644,590000
129,65460,775000
130,80884,500000
131,74243,400000
132,72521,500000
133,67730,400000
134,71440,700000
135,76567,500000
136,74471,700000
137,77934,400000
138,74649,400000
139,81035,400000
140,80728,500000
141,81645,500000
142,62059,400000
143,78065,500000
144,81764,60000
145,81756,84000
146,72382,870000
147,67916,810000
148,81469,445000
149,85820,830000
150,70589,850000
151,76779,80000
152,81267,238000
153,78424,210000
154,77229,250000
155,77016,260000
156,76908,350000
157,75548,450000
158,81175,430000
159,80856,200000
160,77150,472000
161,77183,800000
162,80946,410000
163,77271,385000
164,80598,110000
165,81177,245000
166,78158,230000
167,81237,210000
168,81532,425000
169,81632,152000
170,81128,130000
171,2743,250000
172,81782,275000
173,85771,233000
174,85789,448000
175,85790,138000
176,85846,498000
177,85914,760000
178,85929,268000
179,85967,219000
180,85968,398000
181,86049,354000
182,86149,458000
183,86180,387000
184,86290,220000
185,86504,451000
186,85595,192000
187,86580,379000
188,86864,734000
189,87138,287000
190,87190,381000
191,87209,447000
192,87308,173000
193,87309,263000
194,87333,388000
195,87334,468000
196,87384,244000
197,87401,495000
198,87437,445000
199,87493,781000
200,82259,340000
201,86802,356000
202,85491,286000
203,85489,217000
204,85391,398000
205,81992,382000
206,82042,800000
207,82145,415000
208,82167,250000
209,82210,305000
210,82240,140000
211,82262,170000
212,82350,800000
213,82551,414000
214,82728,207000
215,82891,467000
216,83006,326000
217,83211,299000
218,83497,148000
219,83508,104000
220,83512,128000
221,83777,168000
222,83952,141000
223,84107,309000
224,84138,158000
225,84270,286000
226,84370,183000
227,84614,241000
228,84628,208000
229,84712,206000
230,84768,448000
231,85242,316000
232,85317,333000
233,85350,216000
234,81641,232000
235,83555,272000
236,73482,150000
237,74944,210000
238,68137,295000
239,68181,220000
240,68303,260000
241,68851,450000
242,68980,295000
243,69069,310000
244,69204,250000
245,69593,435000
246,69595,425000
247,75410,302000
248,70100,230000
249,67468,795000
250,70124,800000
251,70582,370000
252,71274,375000
253,71275,370000
254,71693,320000
255,71716,310000
256,71902,395000
257,71962,800000
258,71999,160000
259,72072,800000
260,72309,375000
261,72311,335000
262,70284,800000
263,72342,175000
264,67266,450000
265,66676,725000
266,61468,800000
267,61709,220000
268,62091,330000
269,63744,375000
270,64080,790000
271,64653,390000
272,64656,725000
273,64865,249000
274,64947,430000
275,65052,315000
276,65054,340000
277,66897,325000
278,65268,345000
279,65381,365000
280,65457,235000
281,65458,325000
282,65661,220000
283,65685,365000
284,65798,255000
285,66209,800000
286,66212,290000
287,66383,315000
288,66385,725000
289,66671,350000
290,65380,330000
291,72409,325000
292,70098,450000
293,72437,450000
294,72546,320000
295,72635,470000
296,72847,324000
297,72914,230000
298,73258,730000
299,73381,320000
300,73383,235000
301,85348,158000
302,73819,451000
303,73851,450000
304,73981,450000
305,74010,350000
306,74304,260000
307,74606,290000
308,74933,250000
309,72520,425000
310,72503,220000
311,85563,738000
312,72494,250000
313,72479,255000
314,72030,300000
315,78132,300000
316,64655,300000
317,72892,400000
318,81544,300000
319,80388,300000
320,72733,300000
321,63665,400000
322,63105,400000
323,62644,400000
324,62406,400000
325,81961,300000
326,56024,400000
327,57261,400000
328,72537,300000
329,71509,300000
330,72332,900000
331,81682,1100000
332,65053,185000
333,73875,1250000
334,86513,2000000
335,65188,845000
336,65245,339000
337,86501,2800000
338,73860,900000
339,81346,350000
340,77141,1100000
341,65303,260000
342,86424,390000
343,86247,344000
344,86270,1600000
345,65395,840000
346,77051,1850000
347,86387,980000
348,86369,850000
349,72511,1145000
350,76514,352000
351,72385,320000
352,87499,980000
353,87495,349000
354,87494,398000
355,60834,2100000
356,61029,1300000
357,72405,1375000
358,74846,915000
359,72387,815000
360,87342,2400000
361,75947,1800000
362,76424,350000
363,87268,875000
364,64424,850000
365,74518,1615000
366,87155,950000
367,65646,2950000
368,64732,935000
369,87111,349000
370,64792,375000
371,64882,349000
372,86076,5500000
373,65756,355000
374,85988,816000
375,78546,1000000
376,72902,1120000
377,78714,335000
378,72486,1550000
379,72741,240000
380,72726,320000
381,69647,325000
382,72686,2100000
383,72588,250000
384,83269,176000
385,68128,270000
386,82007,360000
387,70578,1110000
388,82895,273000
389,80958,336000
390,70863,1090000
391,70868,920000
392,82651,221000
393,71097,160000
394,82360,250000
395,82260,925000
396,72513,1175000
397,70415,1600000
398,84566,328000
399,67674,1200000
400,67529,1225000
401,65671,850000
402,77186,1600000
403,85940,1700000
404,81192,850000
405,81299,210000
406,65827,340000
407,72182,399000
408,77428,950000
409,66214,390000
410,66269,1450000
411,85691,1800000
412,85679,802000
413,85621,218000
414,66382,960000
415,85517,283000
416,72099,850000
417,73284,1250000
418,81948,1750000
419,72924,835000
420,67077,1050000
421,78532,2650000
422,67469,385000
423,67470,815000
424,73701,1000000
425,66381,1625000
